%YAML 1.1
%TAG !u! tag:unity3d.com,2011:
--- !u!29 &1
OcclusionCullingSettings:
  m_ObjectHideFlags: 0
  serializedVersion: 2
  m_OcclusionBakeSettings:
    smallestOccluder: 5
    smallestHole: 0.25
    backfaceThreshold: 100
  m_SceneGUID: 00000000000000000000000000000000
  m_OcclusionCullingData: {fileID: 0}
--- !u!104 &2
RenderSettings:
  m_ObjectHideFlags: 0
  serializedVersion: 9
  m_Fog: 0
  m_FogColor: {r: 0.5, g: 0.5, b: 0.5, a: 1}
  m_FogMode: 3
  m_FogDensity: 0.01
  m_LinearFogStart: 0
  m_LinearFogEnd: 300
  m_AmbientSkyColor: {r: 0.212, g: 0.227, b: 0.259, a: 1}
  m_AmbientEquatorColor: {r: 0.114, g: 0.125, b: 0.133, a: 1}
  m_AmbientGroundColor: {r: 0.047, g: 0.043, b: 0.035, a: 1}
  m_AmbientIntensity: 1
  m_AmbientMode: 3
  m_SubtractiveShadowColor: {r: 0.42, g: 0.478, b: 0.627, a: 1}
  m_SkyboxMaterial: {fileID: 0}
  m_HaloStrength: 0.5
  m_FlareStrength: 1
  m_FlareFadeSpeed: 3
  m_HaloTexture: {fileID: 0}
  m_SpotCookie: {fileID: 10001, guid: 0000000000000000e000000000000000, type: 0}
  m_DefaultReflectionMode: 0
  m_DefaultReflectionResolution: 128
  m_ReflectionBounces: 1
  m_ReflectionIntensity: 1
  m_CustomReflection: {fileID: 0}
  m_Sun: {fileID: 0}
  m_IndirectSpecularColor: {r: 0, g: 0, b: 0, a: 1}
  m_UseRadianceAmbientProbe: 0
--- !u!157 &3
LightmapSettings:
  m_ObjectHideFlags: 0
  serializedVersion: 12
  m_GIWorkflowMode: 1
  m_GISettings:
    serializedVersion: 2
    m_BounceScale: 1
    m_IndirectOutputScale: 1
    m_AlbedoBoost: 1
    m_EnvironmentLightingMode: 0
    m_EnableBakedLightmaps: 0
    m_EnableRealtimeLightmaps: 0
  m_LightmapEditorSettings:
    serializedVersion: 12
    m_Resolution: 2
    m_BakeResolution: 40
    m_AtlasSize: 1024
    m_AO: 0
    m_AOMaxDistance: 1
    m_CompAOExponent: 1
    m_CompAOExponentDirect: 0
    m_ExtractAmbientOcclusion: 0
    m_Padding: 2
    m_LightmapParameters: {fileID: 0}
    m_LightmapsBakeMode: 1
    m_TextureCompression: 1
    m_FinalGather: 0
    m_FinalGatherFiltering: 1
    m_FinalGatherRayCount: 256
    m_ReflectionCompression: 2
    m_MixedBakeMode: 2
    m_BakeBackend: 1
    m_PVRSampling: 1
    m_PVRDirectSampleCount: 32
    m_PVRSampleCount: 512
    m_PVRBounces: 2
    m_PVREnvironmentSampleCount: 256
    m_PVREnvironmentReferencePointCount: 2048
    m_PVRFilteringMode: 1
    m_PVRDenoiserTypeDirect: 1
    m_PVRDenoiserTypeIndirect: 1
    m_PVRDenoiserTypeAO: 1
    m_PVRFilterTypeDirect: 0
    m_PVRFilterTypeIndirect: 0
    m_PVRFilterTypeAO: 0
    m_PVREnvironmentMIS: 1
    m_PVRCulling: 1
    m_PVRFilteringGaussRadiusDirect: 1
    m_PVRFilteringGaussRadiusIndirect: 5
    m_PVRFilteringGaussRadiusAO: 2
    m_PVRFilteringAtrousPositionSigmaDirect: 0.5
    m_PVRFilteringAtrousPositionSigmaIndirect: 2
    m_PVRFilteringAtrousPositionSigmaAO: 1
    m_ExportTrainingData: 0
    m_TrainingDataDestination: TrainingData
    m_LightProbeSampleCountMultiplier: 4
  m_LightingDataAsset: {fileID: 0}
  m_LightingSettings: {fileID: 0}
--- !u!196 &4
NavMeshSettings:
  serializedVersion: 2
  m_ObjectHideFlags: 0
  m_BuildSettings:
    serializedVersion: 2
    agentTypeID: 0
    agentRadius: 0.5
    agentHeight: 2
    agentSlope: 45
    agentClimb: 0.4
    ledgeDropHeight: 0
    maxJumpAcrossDistance: 0
    minRegionArea: 2
    manualCellSize: 0
    cellSize: 0.16666667
    manualTileSize: 0
    tileSize: 256
    accuratePlacement: 0
    maxJobWorkers: 0
    preserveTilesOutsideBounds: 0
    debug:
      m_Flags: 0
  m_NavMeshData: {fileID: 0}
--- !u!1001 &48447269
PrefabInstance:
  m_ObjectHideFlags: 0
  serializedVersion: 2
  m_Modification:
    m_TransformParent: {fileID: 1461177668}
    m_Modifications:
    - target: {fileID: 2418648291018930715, guid: 994c1d854a2f67a44b0ee5a058c13595, type: 3}
      propertyPath: m_RootOrder
      value: 9
      objectReference: {fileID: 0}
    - target: {fileID: 2418648291018930715, guid: 994c1d854a2f67a44b0ee5a058c13595, type: 3}
      propertyPath: m_LocalPosition.x
      value: -10.106822
      objectReference: {fileID: 0}
    - target: {fileID: 2418648291018930715, guid: 994c1d854a2f67a44b0ee5a058c13595, type: 3}
      propertyPath: m_LocalPosition.y
      value: -1.7016588
      objectReference: {fileID: 0}
    - target: {fileID: 2418648291018930715, guid: 994c1d854a2f67a44b0ee5a058c13595, type: 3}
      propertyPath: m_LocalPosition.z
      value: 739.7643
      objectReference: {fileID: 0}
    - target: {fileID: 2418648291018930715, guid: 994c1d854a2f67a44b0ee5a058c13595, type: 3}
      propertyPath: m_LocalRotation.w
      value: 1
      objectReference: {fileID: 0}
    - target: {fileID: 2418648291018930715, guid: 994c1d854a2f67a44b0ee5a058c13595, type: 3}
      propertyPath: m_LocalRotation.x
      value: -0
      objectReference: {fileID: 0}
    - target: {fileID: 2418648291018930715, guid: 994c1d854a2f67a44b0ee5a058c13595, type: 3}
      propertyPath: m_LocalRotation.y
      value: -0
      objectReference: {fileID: 0}
    - target: {fileID: 2418648291018930715, guid: 994c1d854a2f67a44b0ee5a058c13595, type: 3}
      propertyPath: m_LocalRotation.z
      value: -0
      objectReference: {fileID: 0}
    - target: {fileID: 2418648291018930715, guid: 994c1d854a2f67a44b0ee5a058c13595, type: 3}
      propertyPath: m_LocalEulerAnglesHint.x
      value: 0
      objectReference: {fileID: 0}
    - target: {fileID: 2418648291018930715, guid: 994c1d854a2f67a44b0ee5a058c13595, type: 3}
      propertyPath: m_LocalEulerAnglesHint.y
      value: 0
      objectReference: {fileID: 0}
    - target: {fileID: 2418648291018930715, guid: 994c1d854a2f67a44b0ee5a058c13595, type: 3}
      propertyPath: m_LocalEulerAnglesHint.z
      value: 0
      objectReference: {fileID: 0}
    - target: {fileID: 5492456899250543482, guid: 994c1d854a2f67a44b0ee5a058c13595, type: 3}
      propertyPath: m_Name
      value: sheet 1_6 (1)
      objectReference: {fileID: 0}
    m_RemovedComponents: []
  m_SourcePrefab: {fileID: 100100000, guid: 994c1d854a2f67a44b0ee5a058c13595, type: 3}
--- !u!4 &48447270 stripped
Transform:
  m_CorrespondingSourceObject: {fileID: 2418648291018930715, guid: 994c1d854a2f67a44b0ee5a058c13595, type: 3}
  m_PrefabInstance: {fileID: 48447269}
  m_PrefabAsset: {fileID: 0}
--- !u!1001 &73492472
PrefabInstance:
  m_ObjectHideFlags: 0
  serializedVersion: 2
  m_Modification:
    m_TransformParent: {fileID: 1461177668}
    m_Modifications:
    - target: {fileID: 2418648291018930715, guid: 994c1d854a2f67a44b0ee5a058c13595, type: 3}
      propertyPath: m_RootOrder
      value: 0
      objectReference: {fileID: 0}
    - target: {fileID: 2418648291018930715, guid: 994c1d854a2f67a44b0ee5a058c13595, type: 3}
      propertyPath: m_LocalPosition.x
      value: -18.357288
      objectReference: {fileID: 0}
    - target: {fileID: 2418648291018930715, guid: 994c1d854a2f67a44b0ee5a058c13595, type: 3}
      propertyPath: m_LocalPosition.y
      value: 0.25782704
      objectReference: {fileID: 0}
    - target: {fileID: 2418648291018930715, guid: 994c1d854a2f67a44b0ee5a058c13595, type: 3}
      propertyPath: m_LocalPosition.z
      value: 739.7643
      objectReference: {fileID: 0}
    - target: {fileID: 2418648291018930715, guid: 994c1d854a2f67a44b0ee5a058c13595, type: 3}
      propertyPath: m_LocalRotation.w
      value: 1
      objectReference: {fileID: 0}
    - target: {fileID: 2418648291018930715, guid: 994c1d854a2f67a44b0ee5a058c13595, type: 3}
      propertyPath: m_LocalRotation.x
      value: -0
      objectReference: {fileID: 0}
    - target: {fileID: 2418648291018930715, guid: 994c1d854a2f67a44b0ee5a058c13595, type: 3}
      propertyPath: m_LocalRotation.y
      value: -0
      objectReference: {fileID: 0}
    - target: {fileID: 2418648291018930715, guid: 994c1d854a2f67a44b0ee5a058c13595, type: 3}
      propertyPath: m_LocalRotation.z
      value: -0
      objectReference: {fileID: 0}
    - target: {fileID: 2418648291018930715, guid: 994c1d854a2f67a44b0ee5a058c13595, type: 3}
      propertyPath: m_LocalEulerAnglesHint.x
      value: 0
      objectReference: {fileID: 0}
    - target: {fileID: 2418648291018930715, guid: 994c1d854a2f67a44b0ee5a058c13595, type: 3}
      propertyPath: m_LocalEulerAnglesHint.y
      value: 0
      objectReference: {fileID: 0}
    - target: {fileID: 2418648291018930715, guid: 994c1d854a2f67a44b0ee5a058c13595, type: 3}
      propertyPath: m_LocalEulerAnglesHint.z
      value: 0
      objectReference: {fileID: 0}
    - target: {fileID: 5492456899250543482, guid: 994c1d854a2f67a44b0ee5a058c13595, type: 3}
      propertyPath: m_Name
      value: sheet 1_6 (10)
      objectReference: {fileID: 0}
    m_RemovedComponents: []
  m_SourcePrefab: {fileID: 100100000, guid: 994c1d854a2f67a44b0ee5a058c13595, type: 3}
--- !u!4 &73492473 stripped
Transform:
  m_CorrespondingSourceObject: {fileID: 2418648291018930715, guid: 994c1d854a2f67a44b0ee5a058c13595, type: 3}
  m_PrefabInstance: {fileID: 73492472}
  m_PrefabAsset: {fileID: 0}
--- !u!1001 &138765877
PrefabInstance:
  m_ObjectHideFlags: 0
  serializedVersion: 2
  m_Modification:
    m_TransformParent: {fileID: 1461177668}
    m_Modifications:
    - target: {fileID: 2418648291018930715, guid: 994c1d854a2f67a44b0ee5a058c13595, type: 3}
      propertyPath: m_RootOrder
      value: 4
      objectReference: {fileID: 0}
    - target: {fileID: 2418648291018930715, guid: 994c1d854a2f67a44b0ee5a058c13595, type: 3}
      propertyPath: m_LocalPosition.x
      value: -7.9410744
      objectReference: {fileID: 0}
    - target: {fileID: 2418648291018930715, guid: 994c1d854a2f67a44b0ee5a058c13595, type: 3}
      propertyPath: m_LocalPosition.y
      value: 0.25782704
      objectReference: {fileID: 0}
    - target: {fileID: 2418648291018930715, guid: 994c1d854a2f67a44b0ee5a058c13595, type: 3}
      propertyPath: m_LocalPosition.z
      value: 739.7643
      objectReference: {fileID: 0}
    - target: {fileID: 2418648291018930715, guid: 994c1d854a2f67a44b0ee5a058c13595, type: 3}
      propertyPath: m_LocalRotation.w
      value: 1
      objectReference: {fileID: 0}
    - target: {fileID: 2418648291018930715, guid: 994c1d854a2f67a44b0ee5a058c13595, type: 3}
      propertyPath: m_LocalRotation.x
      value: -0
      objectReference: {fileID: 0}
    - target: {fileID: 2418648291018930715, guid: 994c1d854a2f67a44b0ee5a058c13595, type: 3}
      propertyPath: m_LocalRotation.y
      value: -0
      objectReference: {fileID: 0}
    - target: {fileID: 2418648291018930715, guid: 994c1d854a2f67a44b0ee5a058c13595, type: 3}
      propertyPath: m_LocalRotation.z
      value: -0
      objectReference: {fileID: 0}
    - target: {fileID: 2418648291018930715, guid: 994c1d854a2f67a44b0ee5a058c13595, type: 3}
      propertyPath: m_LocalEulerAnglesHint.x
      value: 0
      objectReference: {fileID: 0}
    - target: {fileID: 2418648291018930715, guid: 994c1d854a2f67a44b0ee5a058c13595, type: 3}
      propertyPath: m_LocalEulerAnglesHint.y
      value: 0
      objectReference: {fileID: 0}
    - target: {fileID: 2418648291018930715, guid: 994c1d854a2f67a44b0ee5a058c13595, type: 3}
      propertyPath: m_LocalEulerAnglesHint.z
      value: 0
      objectReference: {fileID: 0}
    - target: {fileID: 5492456899250543482, guid: 994c1d854a2f67a44b0ee5a058c13595, type: 3}
      propertyPath: m_Name
      value: sheet 1_6 (6)
      objectReference: {fileID: 0}
    m_RemovedComponents: []
  m_SourcePrefab: {fileID: 100100000, guid: 994c1d854a2f67a44b0ee5a058c13595, type: 3}
--- !u!4 &138765878 stripped
Transform:
  m_CorrespondingSourceObject: {fileID: 2418648291018930715, guid: 994c1d854a2f67a44b0ee5a058c13595, type: 3}
  m_PrefabInstance: {fileID: 138765877}
  m_PrefabAsset: {fileID: 0}
--- !u!1001 &228881223
PrefabInstance:
  m_ObjectHideFlags: 0
  serializedVersion: 2
  m_Modification:
    m_TransformParent: {fileID: 0}
    m_Modifications:
    - target: {fileID: 2239576248019521003, guid: ddda40e9b93485843b64699338e8a912, type: 3}
      propertyPath: m_Name
      value: SecretMusicPlayer
      objectReference: {fileID: 0}
    - target: {fileID: 6326391152509711867, guid: ddda40e9b93485843b64699338e8a912, type: 3}
      propertyPath: m_RootOrder
      value: 2
      objectReference: {fileID: 0}
    - target: {fileID: 6326391152509711867, guid: ddda40e9b93485843b64699338e8a912, type: 3}
      propertyPath: m_LocalPosition.x
      value: 0
      objectReference: {fileID: 0}
    - target: {fileID: 6326391152509711867, guid: ddda40e9b93485843b64699338e8a912, type: 3}
      propertyPath: m_LocalPosition.y
      value: 0
      objectReference: {fileID: 0}
    - target: {fileID: 6326391152509711867, guid: ddda40e9b93485843b64699338e8a912, type: 3}
      propertyPath: m_LocalPosition.z
      value: 0
      objectReference: {fileID: 0}
    - target: {fileID: 6326391152509711867, guid: ddda40e9b93485843b64699338e8a912, type: 3}
      propertyPath: m_LocalRotation.w
      value: 1
      objectReference: {fileID: 0}
    - target: {fileID: 6326391152509711867, guid: ddda40e9b93485843b64699338e8a912, type: 3}
      propertyPath: m_LocalRotation.x
      value: 0
      objectReference: {fileID: 0}
    - target: {fileID: 6326391152509711867, guid: ddda40e9b93485843b64699338e8a912, type: 3}
      propertyPath: m_LocalRotation.y
      value: 0
      objectReference: {fileID: 0}
    - target: {fileID: 6326391152509711867, guid: ddda40e9b93485843b64699338e8a912, type: 3}
      propertyPath: m_LocalRotation.z
      value: 0
      objectReference: {fileID: 0}
    - target: {fileID: 6326391152509711867, guid: ddda40e9b93485843b64699338e8a912, type: 3}
      propertyPath: m_LocalEulerAnglesHint.x
      value: 0
      objectReference: {fileID: 0}
    - target: {fileID: 6326391152509711867, guid: ddda40e9b93485843b64699338e8a912, type: 3}
      propertyPath: m_LocalEulerAnglesHint.y
      value: 0
      objectReference: {fileID: 0}
    - target: {fileID: 6326391152509711867, guid: ddda40e9b93485843b64699338e8a912, type: 3}
      propertyPath: m_LocalEulerAnglesHint.z
      value: 0
      objectReference: {fileID: 0}
    m_RemovedComponents: []
  m_SourcePrefab: {fileID: 100100000, guid: ddda40e9b93485843b64699338e8a912, type: 3}
--- !u!1001 &302080068
PrefabInstance:
  m_ObjectHideFlags: 0
  serializedVersion: 2
  m_Modification:
    m_TransformParent: {fileID: 1461177668}
    m_Modifications:
    - target: {fileID: 2418648291018930715, guid: 994c1d854a2f67a44b0ee5a058c13595, type: 3}
      propertyPath: m_RootOrder
      value: 2
      objectReference: {fileID: 0}
    - target: {fileID: 2418648291018930715, guid: 994c1d854a2f67a44b0ee5a058c13595, type: 3}
      propertyPath: m_LocalPosition.x
      value: -16.191542
      objectReference: {fileID: 0}
    - target: {fileID: 2418648291018930715, guid: 994c1d854a2f67a44b0ee5a058c13595, type: 3}
      propertyPath: m_LocalPosition.y
      value: -1.8047897
      objectReference: {fileID: 0}
    - target: {fileID: 2418648291018930715, guid: 994c1d854a2f67a44b0ee5a058c13595, type: 3}
      propertyPath: m_LocalPosition.z
      value: 739.7643
      objectReference: {fileID: 0}
    - target: {fileID: 2418648291018930715, guid: 994c1d854a2f67a44b0ee5a058c13595, type: 3}
      propertyPath: m_LocalRotation.w
      value: 1
      objectReference: {fileID: 0}
    - target: {fileID: 2418648291018930715, guid: 994c1d854a2f67a44b0ee5a058c13595, type: 3}
      propertyPath: m_LocalRotation.x
      value: -0
      objectReference: {fileID: 0}
    - target: {fileID: 2418648291018930715, guid: 994c1d854a2f67a44b0ee5a058c13595, type: 3}
      propertyPath: m_LocalRotation.y
      value: -0
      objectReference: {fileID: 0}
    - target: {fileID: 2418648291018930715, guid: 994c1d854a2f67a44b0ee5a058c13595, type: 3}
      propertyPath: m_LocalRotation.z
      value: -0
      objectReference: {fileID: 0}
    - target: {fileID: 2418648291018930715, guid: 994c1d854a2f67a44b0ee5a058c13595, type: 3}
      propertyPath: m_LocalEulerAnglesHint.x
      value: 0
      objectReference: {fileID: 0}
    - target: {fileID: 2418648291018930715, guid: 994c1d854a2f67a44b0ee5a058c13595, type: 3}
      propertyPath: m_LocalEulerAnglesHint.y
      value: 0
      objectReference: {fileID: 0}
    - target: {fileID: 2418648291018930715, guid: 994c1d854a2f67a44b0ee5a058c13595, type: 3}
      propertyPath: m_LocalEulerAnglesHint.z
      value: 0
      objectReference: {fileID: 0}
    - target: {fileID: 5492456899250543482, guid: 994c1d854a2f67a44b0ee5a058c13595, type: 3}
      propertyPath: m_Name
      value: sheet 1_6 (8)
      objectReference: {fileID: 0}
    m_RemovedComponents: []
  m_SourcePrefab: {fileID: 100100000, guid: 994c1d854a2f67a44b0ee5a058c13595, type: 3}
--- !u!4 &302080069 stripped
Transform:
  m_CorrespondingSourceObject: {fileID: 2418648291018930715, guid: 994c1d854a2f67a44b0ee5a058c13595, type: 3}
  m_PrefabInstance: {fileID: 302080068}
  m_PrefabAsset: {fileID: 0}
--- !u!1001 &441381499
PrefabInstance:
  m_ObjectHideFlags: 0
  serializedVersion: 2
  m_Modification:
    m_TransformParent: {fileID: 1461177668}
    m_Modifications:
    - target: {fileID: 2418648291018930715, guid: 994c1d854a2f67a44b0ee5a058c13595, type: 3}
      propertyPath: m_RootOrder
      value: 1
      objectReference: {fileID: 0}
    - target: {fileID: 2418648291018930715, guid: 994c1d854a2f67a44b0ee5a058c13595, type: 3}
      propertyPath: m_LocalPosition.x
      value: -18.46042
      objectReference: {fileID: 0}
    - target: {fileID: 2418648291018930715, guid: 994c1d854a2f67a44b0ee5a058c13595, type: 3}
      propertyPath: m_LocalPosition.y
      value: -1.9079205
      objectReference: {fileID: 0}
    - target: {fileID: 2418648291018930715, guid: 994c1d854a2f67a44b0ee5a058c13595, type: 3}
      propertyPath: m_LocalPosition.z
      value: 739.7643
      objectReference: {fileID: 0}
    - target: {fileID: 2418648291018930715, guid: 994c1d854a2f67a44b0ee5a058c13595, type: 3}
      propertyPath: m_LocalRotation.w
      value: 1
      objectReference: {fileID: 0}
    - target: {fileID: 2418648291018930715, guid: 994c1d854a2f67a44b0ee5a058c13595, type: 3}
      propertyPath: m_LocalRotation.x
      value: -0
      objectReference: {fileID: 0}
    - target: {fileID: 2418648291018930715, guid: 994c1d854a2f67a44b0ee5a058c13595, type: 3}
      propertyPath: m_LocalRotation.y
      value: -0
      objectReference: {fileID: 0}
    - target: {fileID: 2418648291018930715, guid: 994c1d854a2f67a44b0ee5a058c13595, type: 3}
      propertyPath: m_LocalRotation.z
      value: -0
      objectReference: {fileID: 0}
    - target: {fileID: 2418648291018930715, guid: 994c1d854a2f67a44b0ee5a058c13595, type: 3}
      propertyPath: m_LocalEulerAnglesHint.x
      value: 0
      objectReference: {fileID: 0}
    - target: {fileID: 2418648291018930715, guid: 994c1d854a2f67a44b0ee5a058c13595, type: 3}
      propertyPath: m_LocalEulerAnglesHint.y
      value: 0
      objectReference: {fileID: 0}
    - target: {fileID: 2418648291018930715, guid: 994c1d854a2f67a44b0ee5a058c13595, type: 3}
      propertyPath: m_LocalEulerAnglesHint.z
      value: 0
      objectReference: {fileID: 0}
    - target: {fileID: 5492456899250543482, guid: 994c1d854a2f67a44b0ee5a058c13595, type: 3}
      propertyPath: m_Name
      value: sheet 1_6 (9)
      objectReference: {fileID: 0}
    m_RemovedComponents: []
  m_SourcePrefab: {fileID: 100100000, guid: 994c1d854a2f67a44b0ee5a058c13595, type: 3}
--- !u!4 &441381500 stripped
Transform:
  m_CorrespondingSourceObject: {fileID: 2418648291018930715, guid: 994c1d854a2f67a44b0ee5a058c13595, type: 3}
  m_PrefabInstance: {fileID: 441381499}
  m_PrefabAsset: {fileID: 0}
--- !u!1 &500171041
GameObject:
  m_ObjectHideFlags: 0
  m_CorrespondingSourceObject: {fileID: 0}
  m_PrefabInstance: {fileID: 0}
  m_PrefabAsset: {fileID: 0}
  serializedVersion: 6
  m_Component:
  - component: {fileID: 500171042}
  - component: {fileID: 500171045}
  - component: {fileID: 500171044}
  - component: {fileID: 500171043}
  m_Layer: 6
  m_Name: Tilemap
  m_TagString: Untagged
  m_Icon: {fileID: 0}
  m_NavMeshLayer: 0
  m_StaticEditorFlags: 0
  m_IsActive: 1
--- !u!4 &500171042
Transform:
  m_ObjectHideFlags: 0
  m_CorrespondingSourceObject: {fileID: 0}
  m_PrefabInstance: {fileID: 0}
  m_PrefabAsset: {fileID: 0}
  m_GameObject: {fileID: 500171041}
  m_LocalRotation: {x: -0, y: -0, z: -0, w: 1}
  m_LocalPosition: {x: 0, y: 0, z: 0}
  m_LocalScale: {x: 1, y: 1, z: 1}
  m_Children: []
  m_Father: {fileID: 814514996}
  m_RootOrder: 0
  m_LocalEulerAnglesHint: {x: 0, y: 0, z: 0}
--- !u!19719996 &500171043
TilemapCollider2D:
  m_ObjectHideFlags: 0
  m_CorrespondingSourceObject: {fileID: 0}
  m_PrefabInstance: {fileID: 0}
  m_PrefabAsset: {fileID: 0}
  m_GameObject: {fileID: 500171041}
  m_Enabled: 1
  m_Density: 1
  m_Material: {fileID: 0}
  m_IsTrigger: 0
  m_UsedByEffector: 0
  m_UsedByComposite: 0
  m_Offset: {x: 0, y: 0}
  m_MaximumTileChangeCount: 1000
  m_ExtrusionFactor: 0.00001
--- !u!483693784 &500171044
TilemapRenderer:
  m_ObjectHideFlags: 0
  m_CorrespondingSourceObject: {fileID: 0}
  m_PrefabInstance: {fileID: 0}
  m_PrefabAsset: {fileID: 0}
  m_GameObject: {fileID: 500171041}
  m_Enabled: 1
  m_CastShadows: 0
  m_ReceiveShadows: 0
  m_DynamicOccludee: 1
  m_MotionVectors: 1
  m_LightProbeUsage: 0
  m_ReflectionProbeUsage: 0
  m_RayTracingMode: 0
  m_RayTraceProcedural: 0
  m_RenderingLayerMask: 1
  m_RendererPriority: 0
  m_Materials:
  - {fileID: 10754, guid: 0000000000000000f000000000000000, type: 0}
  m_StaticBatchInfo:
    firstSubMesh: 0
    subMeshCount: 0
  m_StaticBatchRoot: {fileID: 0}
  m_ProbeAnchor: {fileID: 0}
  m_LightProbeVolumeOverride: {fileID: 0}
  m_ScaleInLightmap: 1
  m_ReceiveGI: 1
  m_PreserveUVs: 0
  m_IgnoreNormalsForChartDetection: 0
  m_ImportantGI: 0
  m_StitchLightmapSeams: 1
  m_SelectedEditorRenderState: 0
  m_MinimumChartSize: 4
  m_AutoUVMaxDistance: 0.5
  m_AutoUVMaxAngle: 89
  m_LightmapParameters: {fileID: 0}
  m_SortingLayerID: 1401693691
  m_SortingLayer: 2
  m_SortingOrder: 0
  m_ChunkSize: {x: 32, y: 32, z: 32}
  m_ChunkCullingBounds: {x: 0, y: 0, z: 0}
  m_MaxChunkCount: 16
  m_MaxFrameAge: 16
  m_SortOrder: 0
  m_Mode: 0
  m_DetectChunkCullingBounds: 0
  m_MaskInteraction: 0
--- !u!1839735485 &500171045
Tilemap:
  m_ObjectHideFlags: 0
  m_CorrespondingSourceObject: {fileID: 0}
  m_PrefabInstance: {fileID: 0}
  m_PrefabAsset: {fileID: 0}
  m_GameObject: {fileID: 500171041}
  m_Enabled: 1
  m_Tiles:
  - first: {x: -13, y: -3, z: 0}
    second:
      serializedVersion: 2
      m_TileIndex: 0
      m_TileSpriteIndex: 0
      m_TileMatrixIndex: 0
      m_TileColorIndex: 0
      m_TileObjectToInstantiateIndex: 65535
      dummyAlignment: 0
      m_AllTileFlags: 1073741825
  - first: {x: -12, y: -3, z: 0}
    second:
      serializedVersion: 2
      m_TileIndex: 0
      m_TileSpriteIndex: 0
      m_TileMatrixIndex: 0
      m_TileColorIndex: 0
      m_TileObjectToInstantiateIndex: 65535
      dummyAlignment: 0
      m_AllTileFlags: 1073741825
  - first: {x: -11, y: -3, z: 0}
    second:
      serializedVersion: 2
      m_TileIndex: 0
      m_TileSpriteIndex: 0
      m_TileMatrixIndex: 0
      m_TileColorIndex: 0
      m_TileObjectToInstantiateIndex: 65535
      dummyAlignment: 0
      m_AllTileFlags: 1073741825
  - first: {x: -10, y: -3, z: 0}
    second:
      serializedVersion: 2
      m_TileIndex: 0
      m_TileSpriteIndex: 0
      m_TileMatrixIndex: 0
      m_TileColorIndex: 0
      m_TileObjectToInstantiateIndex: 65535
      dummyAlignment: 0
      m_AllTileFlags: 1073741825
  - first: {x: -9, y: -3, z: 0}
    second:
      serializedVersion: 2
      m_TileIndex: 0
      m_TileSpriteIndex: 0
      m_TileMatrixIndex: 0
      m_TileColorIndex: 0
      m_TileObjectToInstantiateIndex: 65535
      dummyAlignment: 0
      m_AllTileFlags: 1073741825
  - first: {x: -8, y: -3, z: 0}
    second:
      serializedVersion: 2
      m_TileIndex: 0
      m_TileSpriteIndex: 0
      m_TileMatrixIndex: 0
      m_TileColorIndex: 0
      m_TileObjectToInstantiateIndex: 65535
      dummyAlignment: 0
      m_AllTileFlags: 1073741825
  - first: {x: -7, y: -3, z: 0}
    second:
      serializedVersion: 2
      m_TileIndex: 0
      m_TileSpriteIndex: 0
      m_TileMatrixIndex: 0
      m_TileColorIndex: 0
      m_TileObjectToInstantiateIndex: 65535
      dummyAlignment: 0
      m_AllTileFlags: 1073741825
  - first: {x: -6, y: -3, z: 0}
    second:
      serializedVersion: 2
      m_TileIndex: 0
      m_TileSpriteIndex: 0
      m_TileMatrixIndex: 0
      m_TileColorIndex: 0
      m_TileObjectToInstantiateIndex: 65535
      dummyAlignment: 0
      m_AllTileFlags: 1073741825
  - first: {x: -5, y: -3, z: 0}
    second:
      serializedVersion: 2
      m_TileIndex: 0
      m_TileSpriteIndex: 0
      m_TileMatrixIndex: 0
      m_TileColorIndex: 0
      m_TileObjectToInstantiateIndex: 65535
      dummyAlignment: 0
      m_AllTileFlags: 1073741825
  - first: {x: -4, y: -3, z: 0}
    second:
      serializedVersion: 2
      m_TileIndex: 0
      m_TileSpriteIndex: 0
      m_TileMatrixIndex: 0
      m_TileColorIndex: 0
      m_TileObjectToInstantiateIndex: 65535
      dummyAlignment: 0
      m_AllTileFlags: 1073741825
  - first: {x: -3, y: -3, z: 0}
    second:
      serializedVersion: 2
      m_TileIndex: 0
      m_TileSpriteIndex: 0
      m_TileMatrixIndex: 0
      m_TileColorIndex: 0
      m_TileObjectToInstantiateIndex: 65535
      dummyAlignment: 0
      m_AllTileFlags: 1073741825
  - first: {x: -2, y: -3, z: 0}
    second:
      serializedVersion: 2
      m_TileIndex: 0
      m_TileSpriteIndex: 0
      m_TileMatrixIndex: 0
      m_TileColorIndex: 0
      m_TileObjectToInstantiateIndex: 65535
      dummyAlignment: 0
      m_AllTileFlags: 1073741825
  - first: {x: -1, y: -3, z: 0}
    second:
      serializedVersion: 2
      m_TileIndex: 0
      m_TileSpriteIndex: 0
      m_TileMatrixIndex: 0
      m_TileColorIndex: 0
      m_TileObjectToInstantiateIndex: 65535
      dummyAlignment: 0
      m_AllTileFlags: 1073741825
  - first: {x: 0, y: -3, z: 0}
    second:
      serializedVersion: 2
      m_TileIndex: 0
      m_TileSpriteIndex: 0
      m_TileMatrixIndex: 0
      m_TileColorIndex: 0
      m_TileObjectToInstantiateIndex: 65535
      dummyAlignment: 0
      m_AllTileFlags: 1073741825
  - first: {x: 1, y: -3, z: 0}
    second:
      serializedVersion: 2
      m_TileIndex: 0
      m_TileSpriteIndex: 0
      m_TileMatrixIndex: 0
      m_TileColorIndex: 0
      m_TileObjectToInstantiateIndex: 65535
      dummyAlignment: 0
      m_AllTileFlags: 1073741825
  - first: {x: 2, y: -3, z: 0}
    second:
      serializedVersion: 2
      m_TileIndex: 0
      m_TileSpriteIndex: 0
      m_TileMatrixIndex: 0
      m_TileColorIndex: 0
      m_TileObjectToInstantiateIndex: 65535
      dummyAlignment: 0
      m_AllTileFlags: 1073741825
  - first: {x: 3, y: -3, z: 0}
    second:
      serializedVersion: 2
      m_TileIndex: 0
      m_TileSpriteIndex: 0
      m_TileMatrixIndex: 0
      m_TileColorIndex: 0
      m_TileObjectToInstantiateIndex: 65535
      dummyAlignment: 0
      m_AllTileFlags: 1073741825
  - first: {x: 4, y: -3, z: 0}
    second:
      serializedVersion: 2
      m_TileIndex: 0
      m_TileSpriteIndex: 0
      m_TileMatrixIndex: 0
      m_TileColorIndex: 0
      m_TileObjectToInstantiateIndex: 65535
      dummyAlignment: 0
      m_AllTileFlags: 1073741825
  - first: {x: 5, y: -3, z: 0}
    second:
      serializedVersion: 2
      m_TileIndex: 0
      m_TileSpriteIndex: 0
      m_TileMatrixIndex: 0
      m_TileColorIndex: 0
      m_TileObjectToInstantiateIndex: 65535
      dummyAlignment: 0
      m_AllTileFlags: 1073741825
  - first: {x: 6, y: -3, z: 0}
    second:
      serializedVersion: 2
      m_TileIndex: 0
      m_TileSpriteIndex: 0
      m_TileMatrixIndex: 0
      m_TileColorIndex: 0
      m_TileObjectToInstantiateIndex: 65535
      dummyAlignment: 0
      m_AllTileFlags: 1073741825
  - first: {x: 7, y: -3, z: 0}
    second:
      serializedVersion: 2
      m_TileIndex: 0
      m_TileSpriteIndex: 0
      m_TileMatrixIndex: 0
      m_TileColorIndex: 0
      m_TileObjectToInstantiateIndex: 65535
      dummyAlignment: 0
      m_AllTileFlags: 1073741825
  - first: {x: 8, y: -3, z: 0}
    second:
      serializedVersion: 2
      m_TileIndex: 0
      m_TileSpriteIndex: 0
      m_TileMatrixIndex: 0
      m_TileColorIndex: 0
      m_TileObjectToInstantiateIndex: 65535
      dummyAlignment: 0
      m_AllTileFlags: 1073741825
  - first: {x: -13, y: -2, z: 0}
    second:
      serializedVersion: 2
      m_TileIndex: 0
      m_TileSpriteIndex: 0
      m_TileMatrixIndex: 0
      m_TileColorIndex: 0
      m_TileObjectToInstantiateIndex: 65535
      dummyAlignment: 0
      m_AllTileFlags: 1073741825
  - first: {x: -11, y: -2, z: 0}
    second:
      serializedVersion: 2
      m_TileIndex: 0
      m_TileSpriteIndex: 0
      m_TileMatrixIndex: 0
      m_TileColorIndex: 0
      m_TileObjectToInstantiateIndex: 65535
      dummyAlignment: 0
      m_AllTileFlags: 1073741825
  - first: {x: -10, y: -2, z: 0}
    second:
      serializedVersion: 2
      m_TileIndex: 0
      m_TileSpriteIndex: 0
      m_TileMatrixIndex: 0
      m_TileColorIndex: 0
      m_TileObjectToInstantiateIndex: 65535
      dummyAlignment: 0
      m_AllTileFlags: 1073741825
  - first: {x: -9, y: -2, z: 0}
    second:
      serializedVersion: 2
      m_TileIndex: 0
      m_TileSpriteIndex: 0
      m_TileMatrixIndex: 0
      m_TileColorIndex: 0
      m_TileObjectToInstantiateIndex: 65535
      dummyAlignment: 0
      m_AllTileFlags: 1073741825
  - first: {x: 8, y: -2, z: 0}
    second:
      serializedVersion: 2
      m_TileIndex: 0
      m_TileSpriteIndex: 0
      m_TileMatrixIndex: 0
      m_TileColorIndex: 0
      m_TileObjectToInstantiateIndex: 65535
      dummyAlignment: 0
      m_AllTileFlags: 1073741825
  - first: {x: -13, y: -1, z: 0}
    second:
      serializedVersion: 2
      m_TileIndex: 0
      m_TileSpriteIndex: 0
      m_TileMatrixIndex: 0
      m_TileColorIndex: 0
      m_TileObjectToInstantiateIndex: 65535
      dummyAlignment: 0
      m_AllTileFlags: 1073741825
  - first: {x: 8, y: -1, z: 0}
    second:
      serializedVersion: 2
      m_TileIndex: 0
      m_TileSpriteIndex: 0
      m_TileMatrixIndex: 0
      m_TileColorIndex: 0
      m_TileObjectToInstantiateIndex: 65535
      dummyAlignment: 0
      m_AllTileFlags: 1073741825
  - first: {x: -13, y: 0, z: 0}
    second:
      serializedVersion: 2
      m_TileIndex: 0
      m_TileSpriteIndex: 0
      m_TileMatrixIndex: 0
      m_TileColorIndex: 0
      m_TileObjectToInstantiateIndex: 65535
      dummyAlignment: 0
      m_AllTileFlags: 1073741825
  - first: {x: -11, y: 0, z: 0}
    second:
      serializedVersion: 2
      m_TileIndex: 0
      m_TileSpriteIndex: 0
      m_TileMatrixIndex: 0
      m_TileColorIndex: 0
      m_TileObjectToInstantiateIndex: 65535
      dummyAlignment: 0
      m_AllTileFlags: 1073741825
  - first: {x: -9, y: 0, z: 0}
    second:
      serializedVersion: 2
      m_TileIndex: 0
      m_TileSpriteIndex: 0
      m_TileMatrixIndex: 0
      m_TileColorIndex: 0
      m_TileObjectToInstantiateIndex: 65535
      dummyAlignment: 0
      m_AllTileFlags: 1073741825
  - first: {x: 8, y: 0, z: 0}
    second:
      serializedVersion: 2
      m_TileIndex: 0
      m_TileSpriteIndex: 0
      m_TileMatrixIndex: 0
      m_TileColorIndex: 0
      m_TileObjectToInstantiateIndex: 65535
      dummyAlignment: 0
      m_AllTileFlags: 1073741825
  - first: {x: -13, y: 1, z: 0}
    second:
      serializedVersion: 2
      m_TileIndex: 0
      m_TileSpriteIndex: 0
      m_TileMatrixIndex: 0
      m_TileColorIndex: 0
      m_TileObjectToInstantiateIndex: 65535
      dummyAlignment: 0
      m_AllTileFlags: 1073741825
  - first: {x: 8, y: 1, z: 0}
    second:
      serializedVersion: 2
      m_TileIndex: 0
      m_TileSpriteIndex: 0
      m_TileMatrixIndex: 0
      m_TileColorIndex: 0
      m_TileObjectToInstantiateIndex: 65535
      dummyAlignment: 0
      m_AllTileFlags: 1073741825
  - first: {x: -13, y: 2, z: 0}
    second:
      serializedVersion: 2
      m_TileIndex: 0
      m_TileSpriteIndex: 0
      m_TileMatrixIndex: 0
      m_TileColorIndex: 0
      m_TileObjectToInstantiateIndex: 65535
      dummyAlignment: 0
      m_AllTileFlags: 1073741825
  - first: {x: -12, y: 2, z: 0}
    second:
      serializedVersion: 2
      m_TileIndex: 0
      m_TileSpriteIndex: 0
      m_TileMatrixIndex: 0
      m_TileColorIndex: 0
      m_TileObjectToInstantiateIndex: 65535
      dummyAlignment: 0
      m_AllTileFlags: 1073741825
  - first: {x: -11, y: 2, z: 0}
    second:
      serializedVersion: 2
      m_TileIndex: 0
      m_TileSpriteIndex: 0
      m_TileMatrixIndex: 0
      m_TileColorIndex: 0
      m_TileObjectToInstantiateIndex: 65535
      dummyAlignment: 0
      m_AllTileFlags: 1073741825
  - first: {x: 7, y: 2, z: 0}
    second:
      serializedVersion: 2
      m_TileIndex: 0
      m_TileSpriteIndex: 0
      m_TileMatrixIndex: 0
      m_TileColorIndex: 0
      m_TileObjectToInstantiateIndex: 65535
      dummyAlignment: 0
      m_AllTileFlags: 1073741825
  - first: {x: 8, y: 2, z: 0}
    second:
      serializedVersion: 2
      m_TileIndex: 0
      m_TileSpriteIndex: 0
      m_TileMatrixIndex: 0
      m_TileColorIndex: 0
      m_TileObjectToInstantiateIndex: 65535
      dummyAlignment: 0
      m_AllTileFlags: 1073741825
  - first: {x: -11, y: 3, z: 0}
    second:
      serializedVersion: 2
      m_TileIndex: 0
      m_TileSpriteIndex: 0
      m_TileMatrixIndex: 0
      m_TileColorIndex: 0
      m_TileObjectToInstantiateIndex: 65535
      dummyAlignment: 0
      m_AllTileFlags: 1073741825
  - first: {x: -10, y: 3, z: 0}
    second:
      serializedVersion: 2
      m_TileIndex: 0
      m_TileSpriteIndex: 0
      m_TileMatrixIndex: 0
      m_TileColorIndex: 0
      m_TileObjectToInstantiateIndex: 65535
      dummyAlignment: 0
      m_AllTileFlags: 1073741825
  - first: {x: -9, y: 3, z: 0}
    second:
      serializedVersion: 2
      m_TileIndex: 0
      m_TileSpriteIndex: 0
      m_TileMatrixIndex: 0
      m_TileColorIndex: 0
      m_TileObjectToInstantiateIndex: 65535
      dummyAlignment: 0
      m_AllTileFlags: 1073741825
  - first: {x: 6, y: 3, z: 0}
    second:
      serializedVersion: 2
      m_TileIndex: 0
      m_TileSpriteIndex: 0
      m_TileMatrixIndex: 0
      m_TileColorIndex: 0
      m_TileObjectToInstantiateIndex: 65535
      dummyAlignment: 0
      m_AllTileFlags: 1073741825
  - first: {x: 7, y: 3, z: 0}
    second:
      serializedVersion: 2
      m_TileIndex: 0
      m_TileSpriteIndex: 0
      m_TileMatrixIndex: 0
      m_TileColorIndex: 0
      m_TileObjectToInstantiateIndex: 65535
      dummyAlignment: 0
      m_AllTileFlags: 1073741825
  - first: {x: -9, y: 4, z: 0}
    second:
      serializedVersion: 2
      m_TileIndex: 0
      m_TileSpriteIndex: 0
      m_TileMatrixIndex: 0
      m_TileColorIndex: 0
      m_TileObjectToInstantiateIndex: 65535
      dummyAlignment: 0
      m_AllTileFlags: 1073741825
  - first: {x: -8, y: 4, z: 0}
    second:
      serializedVersion: 2
      m_TileIndex: 0
      m_TileSpriteIndex: 0
      m_TileMatrixIndex: 0
      m_TileColorIndex: 0
      m_TileObjectToInstantiateIndex: 65535
      dummyAlignment: 0
      m_AllTileFlags: 1073741825
  - first: {x: -7, y: 4, z: 0}
    second:
      serializedVersion: 2
      m_TileIndex: 0
      m_TileSpriteIndex: 0
      m_TileMatrixIndex: 0
      m_TileColorIndex: 0
      m_TileObjectToInstantiateIndex: 65535
      dummyAlignment: 0
      m_AllTileFlags: 1073741825
  - first: {x: -6, y: 4, z: 0}
    second:
      serializedVersion: 2
      m_TileIndex: 0
      m_TileSpriteIndex: 0
      m_TileMatrixIndex: 0
      m_TileColorIndex: 0
      m_TileObjectToInstantiateIndex: 65535
      dummyAlignment: 0
      m_AllTileFlags: 1073741825
  - first: {x: -5, y: 4, z: 0}
    second:
      serializedVersion: 2
      m_TileIndex: 0
      m_TileSpriteIndex: 0
      m_TileMatrixIndex: 0
      m_TileColorIndex: 0
      m_TileObjectToInstantiateIndex: 65535
      dummyAlignment: 0
      m_AllTileFlags: 1073741825
  - first: {x: -4, y: 4, z: 0}
    second:
      serializedVersion: 2
      m_TileIndex: 0
      m_TileSpriteIndex: 0
      m_TileMatrixIndex: 0
      m_TileColorIndex: 0
      m_TileObjectToInstantiateIndex: 65535
      dummyAlignment: 0
      m_AllTileFlags: 1073741825
  - first: {x: -3, y: 4, z: 0}
    second:
      serializedVersion: 2
      m_TileIndex: 0
      m_TileSpriteIndex: 0
      m_TileMatrixIndex: 0
      m_TileColorIndex: 0
      m_TileObjectToInstantiateIndex: 65535
      dummyAlignment: 0
      m_AllTileFlags: 1073741825
  - first: {x: -2, y: 4, z: 0}
    second:
      serializedVersion: 2
      m_TileIndex: 0
      m_TileSpriteIndex: 0
      m_TileMatrixIndex: 0
      m_TileColorIndex: 0
      m_TileObjectToInstantiateIndex: 65535
      dummyAlignment: 0
      m_AllTileFlags: 1073741825
  - first: {x: -1, y: 4, z: 0}
    second:
      serializedVersion: 2
      m_TileIndex: 0
      m_TileSpriteIndex: 0
      m_TileMatrixIndex: 0
      m_TileColorIndex: 0
      m_TileObjectToInstantiateIndex: 65535
      dummyAlignment: 0
      m_AllTileFlags: 1073741825
  - first: {x: 0, y: 4, z: 0}
    second:
      serializedVersion: 2
      m_TileIndex: 0
      m_TileSpriteIndex: 0
      m_TileMatrixIndex: 0
      m_TileColorIndex: 0
      m_TileObjectToInstantiateIndex: 65535
      dummyAlignment: 0
      m_AllTileFlags: 1073741825
  - first: {x: 1, y: 4, z: 0}
    second:
      serializedVersion: 2
      m_TileIndex: 0
      m_TileSpriteIndex: 0
      m_TileMatrixIndex: 0
      m_TileColorIndex: 0
      m_TileObjectToInstantiateIndex: 65535
      dummyAlignment: 0
      m_AllTileFlags: 1073741825
  - first: {x: 2, y: 4, z: 0}
    second:
      serializedVersion: 2
      m_TileIndex: 0
      m_TileSpriteIndex: 0
      m_TileMatrixIndex: 0
      m_TileColorIndex: 0
      m_TileObjectToInstantiateIndex: 65535
      dummyAlignment: 0
      m_AllTileFlags: 1073741825
  - first: {x: 3, y: 4, z: 0}
    second:
      serializedVersion: 2
      m_TileIndex: 0
      m_TileSpriteIndex: 0
      m_TileMatrixIndex: 0
      m_TileColorIndex: 0
      m_TileObjectToInstantiateIndex: 65535
      dummyAlignment: 0
      m_AllTileFlags: 1073741825
  - first: {x: 4, y: 4, z: 0}
    second:
      serializedVersion: 2
      m_TileIndex: 0
      m_TileSpriteIndex: 0
      m_TileMatrixIndex: 0
      m_TileColorIndex: 0
      m_TileObjectToInstantiateIndex: 65535
      dummyAlignment: 0
      m_AllTileFlags: 1073741825
  - first: {x: 5, y: 4, z: 0}
    second:
      serializedVersion: 2
      m_TileIndex: 0
      m_TileSpriteIndex: 0
      m_TileMatrixIndex: 0
      m_TileColorIndex: 0
      m_TileObjectToInstantiateIndex: 65535
      dummyAlignment: 0
      m_AllTileFlags: 1073741825
  - first: {x: 6, y: 4, z: 0}
    second:
      serializedVersion: 2
      m_TileIndex: 0
      m_TileSpriteIndex: 0
      m_TileMatrixIndex: 0
      m_TileColorIndex: 0
      m_TileObjectToInstantiateIndex: 65535
      dummyAlignment: 0
      m_AllTileFlags: 1073741825
  m_AnimatedTiles: {}
  m_TileAssetArray:
  - m_RefCount: 61
    m_Data: {fileID: 11400000, guid: 30bd438aa515f22458fbf60752d410a5, type: 2}
  m_TileSpriteArray:
  - m_RefCount: 61
    m_Data: {fileID: 3038985000587531000, guid: 4f753c09eab2be44e8385b27da5b2861, type: 3}
  m_TileMatrixArray:
  - m_RefCount: 61
    m_Data:
      e00: 1
      e01: 0
      e02: 0
      e03: 0
      e10: 0
      e11: 1
      e12: 0
      e13: 0
      e20: 0
      e21: 0
      e22: 1
      e23: 0
      e30: 0
      e31: 0
      e32: 0
      e33: 1
  m_TileColorArray:
  - m_RefCount: 61
    m_Data: {r: 1, g: 1, b: 1, a: 1}
  m_TileObjectToInstantiateArray: []
  m_AnimationFrameRate: 1
  m_Color: {r: 1, g: 1, b: 1, a: 1}
  m_Origin: {x: -13, y: -3, z: 0}
  m_Size: {x: 22, y: 8, z: 1}
  m_TileAnchor: {x: 0.5, y: 0.5, z: 0}
  m_TileOrientation: 0
  m_TileOrientationMatrix:
    e00: 1
    e01: 0
    e02: 0
    e03: 0
    e10: 0
    e11: 1
    e12: 0
    e13: 0
    e20: 0
    e21: 0
    e22: 1
    e23: 0
    e30: 0
    e31: 0
    e32: 0
    e33: 1
--- !u!1 &774934712
GameObject:
  m_ObjectHideFlags: 0
  m_CorrespondingSourceObject: {fileID: 0}
  m_PrefabInstance: {fileID: 0}
  m_PrefabAsset: {fileID: 0}
  serializedVersion: 6
  m_Component:
  - component: {fileID: 774934713}
  m_Layer: 0
  m_Name: Backgrounds
  m_TagString: Untagged
  m_Icon: {fileID: 0}
  m_NavMeshLayer: 0
  m_StaticEditorFlags: 0
  m_IsActive: 1
--- !u!4 &774934713
Transform:
  m_ObjectHideFlags: 0
  m_CorrespondingSourceObject: {fileID: 0}
  m_PrefabInstance: {fileID: 0}
  m_PrefabAsset: {fileID: 0}
  m_GameObject: {fileID: 774934712}
  m_LocalRotation: {x: 0, y: 0, z: 0, w: 1}
  m_LocalPosition: {x: 12.235293, y: 1.4837174, z: -739.7643}
  m_LocalScale: {x: 1, y: 1, z: 1}
  m_Children:
  - {fileID: 1181773029}
  m_Father: {fileID: 0}
  m_RootOrder: 3
  m_LocalEulerAnglesHint: {x: 0, y: 0, z: 0}
--- !u!1 &814514994
GameObject:
  m_ObjectHideFlags: 0
  m_CorrespondingSourceObject: {fileID: 0}
  m_PrefabInstance: {fileID: 0}
  m_PrefabAsset: {fileID: 0}
  serializedVersion: 6
  m_Component:
  - component: {fileID: 814514996}
  - component: {fileID: 814514995}
  m_Layer: 0
  m_Name: Grid
  m_TagString: Untagged
  m_Icon: {fileID: 0}
  m_NavMeshLayer: 0
  m_StaticEditorFlags: 0
  m_IsActive: 1
--- !u!156049354 &814514995
Grid:
  m_ObjectHideFlags: 0
  m_CorrespondingSourceObject: {fileID: 0}
  m_PrefabInstance: {fileID: 0}
  m_PrefabAsset: {fileID: 0}
  m_GameObject: {fileID: 814514994}
  m_Enabled: 1
  m_CellSize: {x: 1, y: 1, z: 0}
  m_CellGap: {x: 0, y: 0, z: 0}
  m_CellLayout: 0
  m_CellSwizzle: 0
--- !u!4 &814514996
Transform:
  m_ObjectHideFlags: 0
  m_CorrespondingSourceObject: {fileID: 0}
  m_PrefabInstance: {fileID: 0}
  m_PrefabAsset: {fileID: 0}
  m_GameObject: {fileID: 814514994}
  m_LocalRotation: {x: 0, y: 0, z: 0, w: 1}
  m_LocalPosition: {x: 0, y: 0, z: 0}
  m_LocalScale: {x: 1, y: 1, z: 1}
  m_Children:
  - {fileID: 500171042}
  m_Father: {fileID: 0}
  m_RootOrder: 5
  m_LocalEulerAnglesHint: {x: 0, y: 0, z: 0}
--- !u!1001 &848358264
PrefabInstance:
  m_ObjectHideFlags: 0
  serializedVersion: 2
  m_Modification:
    m_TransformParent: {fileID: 1461177668}
    m_Modifications:
    - target: {fileID: 2418648291018930715, guid: 994c1d854a2f67a44b0ee5a058c13595, type: 3}
      propertyPath: m_RootOrder
      value: 3
      objectReference: {fileID: 0}
    - target: {fileID: 2418648291018930715, guid: 994c1d854a2f67a44b0ee5a058c13595, type: 3}
      propertyPath: m_LocalPosition.x
      value: -16.088411
      objectReference: {fileID: 0}
    - target: {fileID: 2418648291018930715, guid: 994c1d854a2f67a44b0ee5a058c13595, type: 3}
      propertyPath: m_LocalPosition.y
      value: 0.15469623
      objectReference: {fileID: 0}
    - target: {fileID: 2418648291018930715, guid: 994c1d854a2f67a44b0ee5a058c13595, type: 3}
      propertyPath: m_LocalPosition.z
      value: 739.7643
      objectReference: {fileID: 0}
    - target: {fileID: 2418648291018930715, guid: 994c1d854a2f67a44b0ee5a058c13595, type: 3}
      propertyPath: m_LocalRotation.w
      value: 1
      objectReference: {fileID: 0}
    - target: {fileID: 2418648291018930715, guid: 994c1d854a2f67a44b0ee5a058c13595, type: 3}
      propertyPath: m_LocalRotation.x
      value: -0
      objectReference: {fileID: 0}
    - target: {fileID: 2418648291018930715, guid: 994c1d854a2f67a44b0ee5a058c13595, type: 3}
      propertyPath: m_LocalRotation.y
      value: -0
      objectReference: {fileID: 0}
    - target: {fileID: 2418648291018930715, guid: 994c1d854a2f67a44b0ee5a058c13595, type: 3}
      propertyPath: m_LocalRotation.z
      value: -0
      objectReference: {fileID: 0}
    - target: {fileID: 2418648291018930715, guid: 994c1d854a2f67a44b0ee5a058c13595, type: 3}
      propertyPath: m_LocalEulerAnglesHint.x
      value: 0
      objectReference: {fileID: 0}
    - target: {fileID: 2418648291018930715, guid: 994c1d854a2f67a44b0ee5a058c13595, type: 3}
      propertyPath: m_LocalEulerAnglesHint.y
      value: 0
      objectReference: {fileID: 0}
    - target: {fileID: 2418648291018930715, guid: 994c1d854a2f67a44b0ee5a058c13595, type: 3}
      propertyPath: m_LocalEulerAnglesHint.z
      value: 0
      objectReference: {fileID: 0}
    - target: {fileID: 5492456899250543482, guid: 994c1d854a2f67a44b0ee5a058c13595, type: 3}
      propertyPath: m_Name
      value: sheet 1_6 (7)
      objectReference: {fileID: 0}
    m_RemovedComponents: []
  m_SourcePrefab: {fileID: 100100000, guid: 994c1d854a2f67a44b0ee5a058c13595, type: 3}
--- !u!4 &848358265 stripped
Transform:
  m_CorrespondingSourceObject: {fileID: 2418648291018930715, guid: 994c1d854a2f67a44b0ee5a058c13595, type: 3}
  m_PrefabInstance: {fileID: 848358264}
  m_PrefabAsset: {fileID: 0}
--- !u!1001 &971308037
PrefabInstance:
  m_ObjectHideFlags: 0
  serializedVersion: 2
  m_Modification:
    m_TransformParent: {fileID: 1461177668}
    m_Modifications:
    - target: {fileID: 2418648291018930715, guid: 994c1d854a2f67a44b0ee5a058c13595, type: 3}
      propertyPath: m_RootOrder
      value: 8
      objectReference: {fileID: 0}
    - target: {fileID: 2418648291018930715, guid: 994c1d854a2f67a44b0ee5a058c13595, type: 3}
      propertyPath: m_LocalPosition.x
      value: -10.106822
      objectReference: {fileID: 0}
    - target: {fileID: 2418648291018930715, guid: 994c1d854a2f67a44b0ee5a058c13595, type: 3}
      propertyPath: m_LocalPosition.y
      value: 0.36095798
      objectReference: {fileID: 0}
    - target: {fileID: 2418648291018930715, guid: 994c1d854a2f67a44b0ee5a058c13595, type: 3}
      propertyPath: m_LocalPosition.z
      value: 739.7643
      objectReference: {fileID: 0}
    - target: {fileID: 2418648291018930715, guid: 994c1d854a2f67a44b0ee5a058c13595, type: 3}
      propertyPath: m_LocalRotation.w
      value: 1
      objectReference: {fileID: 0}
    - target: {fileID: 2418648291018930715, guid: 994c1d854a2f67a44b0ee5a058c13595, type: 3}
      propertyPath: m_LocalRotation.x
      value: -0
      objectReference: {fileID: 0}
    - target: {fileID: 2418648291018930715, guid: 994c1d854a2f67a44b0ee5a058c13595, type: 3}
      propertyPath: m_LocalRotation.y
      value: -0
      objectReference: {fileID: 0}
    - target: {fileID: 2418648291018930715, guid: 994c1d854a2f67a44b0ee5a058c13595, type: 3}
      propertyPath: m_LocalRotation.z
      value: -0
      objectReference: {fileID: 0}
    - target: {fileID: 2418648291018930715, guid: 994c1d854a2f67a44b0ee5a058c13595, type: 3}
      propertyPath: m_LocalEulerAnglesHint.x
      value: 0
      objectReference: {fileID: 0}
    - target: {fileID: 2418648291018930715, guid: 994c1d854a2f67a44b0ee5a058c13595, type: 3}
      propertyPath: m_LocalEulerAnglesHint.y
      value: 0
      objectReference: {fileID: 0}
    - target: {fileID: 2418648291018930715, guid: 994c1d854a2f67a44b0ee5a058c13595, type: 3}
      propertyPath: m_LocalEulerAnglesHint.z
      value: 0
      objectReference: {fileID: 0}
    - target: {fileID: 5492456899250543482, guid: 994c1d854a2f67a44b0ee5a058c13595, type: 3}
      propertyPath: m_Name
      value: sheet 1_6 (2)
      objectReference: {fileID: 0}
    m_RemovedComponents: []
  m_SourcePrefab: {fileID: 100100000, guid: 994c1d854a2f67a44b0ee5a058c13595, type: 3}
--- !u!4 &971308038 stripped
Transform:
  m_CorrespondingSourceObject: {fileID: 2418648291018930715, guid: 994c1d854a2f67a44b0ee5a058c13595, type: 3}
  m_PrefabInstance: {fileID: 971308037}
  m_PrefabAsset: {fileID: 0}
--- !u!1001 &1079774502
PrefabInstance:
  m_ObjectHideFlags: 0
  serializedVersion: 2
  m_Modification:
    m_TransformParent: {fileID: 1461177668}
    m_Modifications:
    - target: {fileID: 2418648291018930715, guid: 994c1d854a2f67a44b0ee5a058c13595, type: 3}
      propertyPath: m_RootOrder
      value: 5
      objectReference: {fileID: 0}
    - target: {fileID: 2418648291018930715, guid: 994c1d854a2f67a44b0ee5a058c13595, type: 3}
      propertyPath: m_LocalPosition.x
      value: -7.9410744
      objectReference: {fileID: 0}
    - target: {fileID: 2418648291018930715, guid: 994c1d854a2f67a44b0ee5a058c13595, type: 3}
      propertyPath: m_LocalPosition.y
      value: -1.7016588
      objectReference: {fileID: 0}
    - target: {fileID: 2418648291018930715, guid: 994c1d854a2f67a44b0ee5a058c13595, type: 3}
      propertyPath: m_LocalPosition.z
      value: 739.7643
      objectReference: {fileID: 0}
    - target: {fileID: 2418648291018930715, guid: 994c1d854a2f67a44b0ee5a058c13595, type: 3}
      propertyPath: m_LocalRotation.w
      value: 1
      objectReference: {fileID: 0}
    - target: {fileID: 2418648291018930715, guid: 994c1d854a2f67a44b0ee5a058c13595, type: 3}
      propertyPath: m_LocalRotation.x
      value: -0
      objectReference: {fileID: 0}
    - target: {fileID: 2418648291018930715, guid: 994c1d854a2f67a44b0ee5a058c13595, type: 3}
      propertyPath: m_LocalRotation.y
      value: -0
      objectReference: {fileID: 0}
    - target: {fileID: 2418648291018930715, guid: 994c1d854a2f67a44b0ee5a058c13595, type: 3}
      propertyPath: m_LocalRotation.z
      value: -0
      objectReference: {fileID: 0}
    - target: {fileID: 2418648291018930715, guid: 994c1d854a2f67a44b0ee5a058c13595, type: 3}
      propertyPath: m_LocalEulerAnglesHint.x
      value: 0
      objectReference: {fileID: 0}
    - target: {fileID: 2418648291018930715, guid: 994c1d854a2f67a44b0ee5a058c13595, type: 3}
      propertyPath: m_LocalEulerAnglesHint.y
      value: 0
      objectReference: {fileID: 0}
    - target: {fileID: 2418648291018930715, guid: 994c1d854a2f67a44b0ee5a058c13595, type: 3}
      propertyPath: m_LocalEulerAnglesHint.z
      value: 0
      objectReference: {fileID: 0}
    - target: {fileID: 5492456899250543482, guid: 994c1d854a2f67a44b0ee5a058c13595, type: 3}
      propertyPath: m_Name
      value: sheet 1_6 (5)
      objectReference: {fileID: 0}
    m_RemovedComponents: []
  m_SourcePrefab: {fileID: 100100000, guid: 994c1d854a2f67a44b0ee5a058c13595, type: 3}
--- !u!4 &1079774503 stripped
Transform:
  m_CorrespondingSourceObject: {fileID: 2418648291018930715, guid: 994c1d854a2f67a44b0ee5a058c13595, type: 3}
  m_PrefabInstance: {fileID: 1079774502}
  m_PrefabAsset: {fileID: 0}
--- !u!1001 &1150224993
PrefabInstance:
  m_ObjectHideFlags: 0
  serializedVersion: 2
  m_Modification:
    m_TransformParent: {fileID: 1461177668}
    m_Modifications:
    - target: {fileID: 2418648291018930715, guid: 994c1d854a2f67a44b0ee5a058c13595, type: 3}
      propertyPath: m_RootOrder
      value: 7
      objectReference: {fileID: 0}
    - target: {fileID: 2418648291018930715, guid: 994c1d854a2f67a44b0ee5a058c13595, type: 3}
      propertyPath: m_LocalPosition.x
      value: -13.922664
      objectReference: {fileID: 0}
    - target: {fileID: 2418648291018930715, guid: 994c1d854a2f67a44b0ee5a058c13595, type: 3}
      propertyPath: m_LocalPosition.y
      value: 0.4640888
      objectReference: {fileID: 0}
    - target: {fileID: 2418648291018930715, guid: 994c1d854a2f67a44b0ee5a058c13595, type: 3}
      propertyPath: m_LocalPosition.z
      value: 739.7643
      objectReference: {fileID: 0}
    - target: {fileID: 2418648291018930715, guid: 994c1d854a2f67a44b0ee5a058c13595, type: 3}
      propertyPath: m_LocalRotation.w
      value: 1
      objectReference: {fileID: 0}
    - target: {fileID: 2418648291018930715, guid: 994c1d854a2f67a44b0ee5a058c13595, type: 3}
      propertyPath: m_LocalRotation.x
      value: -0
      objectReference: {fileID: 0}
    - target: {fileID: 2418648291018930715, guid: 994c1d854a2f67a44b0ee5a058c13595, type: 3}
      propertyPath: m_LocalRotation.y
      value: -0
      objectReference: {fileID: 0}
    - target: {fileID: 2418648291018930715, guid: 994c1d854a2f67a44b0ee5a058c13595, type: 3}
      propertyPath: m_LocalRotation.z
      value: -0
      objectReference: {fileID: 0}
    - target: {fileID: 2418648291018930715, guid: 994c1d854a2f67a44b0ee5a058c13595, type: 3}
      propertyPath: m_LocalEulerAnglesHint.x
      value: 0
      objectReference: {fileID: 0}
    - target: {fileID: 2418648291018930715, guid: 994c1d854a2f67a44b0ee5a058c13595, type: 3}
      propertyPath: m_LocalEulerAnglesHint.y
      value: 0
      objectReference: {fileID: 0}
    - target: {fileID: 2418648291018930715, guid: 994c1d854a2f67a44b0ee5a058c13595, type: 3}
      propertyPath: m_LocalEulerAnglesHint.z
      value: 0
      objectReference: {fileID: 0}
    - target: {fileID: 5492456899250543482, guid: 994c1d854a2f67a44b0ee5a058c13595, type: 3}
      propertyPath: m_Name
      value: sheet 1_6 (3)
      objectReference: {fileID: 0}
    m_RemovedComponents: []
  m_SourcePrefab: {fileID: 100100000, guid: 994c1d854a2f67a44b0ee5a058c13595, type: 3}
--- !u!4 &1150224994 stripped
Transform:
  m_CorrespondingSourceObject: {fileID: 2418648291018930715, guid: 994c1d854a2f67a44b0ee5a058c13595, type: 3}
  m_PrefabInstance: {fileID: 1150224993}
  m_PrefabAsset: {fileID: 0}
--- !u!1001 &1181773028
PrefabInstance:
  m_ObjectHideFlags: 0
  serializedVersion: 2
  m_Modification:
    m_TransformParent: {fileID: 774934713}
    m_Modifications:
    - target: {fileID: 1501876966166516180, guid: d193cab0f5e44d6409713fa49dce6842, type: 3}
      propertyPath: m_RootOrder
      value: 0
      objectReference: {fileID: 0}
    - target: {fileID: 1501876966166516180, guid: d193cab0f5e44d6409713fa49dce6842, type: 3}
      propertyPath: m_LocalPosition.x
      value: -12.27257
      objectReference: {fileID: 0}
    - target: {fileID: 1501876966166516180, guid: d193cab0f5e44d6409713fa49dce6842, type: 3}
      propertyPath: m_LocalPosition.y
      value: -0.7734813
      objectReference: {fileID: 0}
    - target: {fileID: 1501876966166516180, guid: d193cab0f5e44d6409713fa49dce6842, type: 3}
      propertyPath: m_LocalPosition.z
      value: 739.7643
      objectReference: {fileID: 0}
    - target: {fileID: 1501876966166516180, guid: d193cab0f5e44d6409713fa49dce6842, type: 3}
      propertyPath: m_LocalRotation.w
      value: 1
      objectReference: {fileID: 0}
    - target: {fileID: 1501876966166516180, guid: d193cab0f5e44d6409713fa49dce6842, type: 3}
      propertyPath: m_LocalRotation.x
      value: -0
      objectReference: {fileID: 0}
    - target: {fileID: 1501876966166516180, guid: d193cab0f5e44d6409713fa49dce6842, type: 3}
      propertyPath: m_LocalRotation.y
      value: -0
      objectReference: {fileID: 0}
    - target: {fileID: 1501876966166516180, guid: d193cab0f5e44d6409713fa49dce6842, type: 3}
      propertyPath: m_LocalRotation.z
      value: -0
      objectReference: {fileID: 0}
    - target: {fileID: 1501876966166516180, guid: d193cab0f5e44d6409713fa49dce6842, type: 3}
      propertyPath: m_LocalEulerAnglesHint.x
      value: 0
      objectReference: {fileID: 0}
    - target: {fileID: 1501876966166516180, guid: d193cab0f5e44d6409713fa49dce6842, type: 3}
      propertyPath: m_LocalEulerAnglesHint.y
      value: 0
      objectReference: {fileID: 0}
    - target: {fileID: 1501876966166516180, guid: d193cab0f5e44d6409713fa49dce6842, type: 3}
      propertyPath: m_LocalEulerAnglesHint.z
      value: 0
      objectReference: {fileID: 0}
    - target: {fileID: 6366965846613892181, guid: d193cab0f5e44d6409713fa49dce6842, type: 3}
      propertyPath: m_Name
      value: Background
      objectReference: {fileID: 0}
    m_RemovedComponents: []
  m_SourcePrefab: {fileID: 100100000, guid: d193cab0f5e44d6409713fa49dce6842, type: 3}
--- !u!4 &1181773029 stripped
Transform:
  m_CorrespondingSourceObject: {fileID: 1501876966166516180, guid: d193cab0f5e44d6409713fa49dce6842, type: 3}
  m_PrefabInstance: {fileID: 1181773028}
  m_PrefabAsset: {fileID: 0}
--- !u!1001 &1408803091
PrefabInstance:
  m_ObjectHideFlags: 0
  serializedVersion: 2
  m_Modification:
    m_TransformParent: {fileID: 1461177668}
    m_Modifications:
    - target: {fileID: 2418648291018930715, guid: 994c1d854a2f67a44b0ee5a058c13595, type: 3}
      propertyPath: m_RootOrder
      value: 6
      objectReference: {fileID: 0}
    - target: {fileID: 2418648291018930715, guid: 994c1d854a2f67a44b0ee5a058c13595, type: 3}
      propertyPath: m_LocalPosition.x
      value: -11.963178
      objectReference: {fileID: 0}
    - target: {fileID: 2418648291018930715, guid: 994c1d854a2f67a44b0ee5a058c13595, type: 3}
      propertyPath: m_LocalPosition.y
      value: 0.4640888
      objectReference: {fileID: 0}
    - target: {fileID: 2418648291018930715, guid: 994c1d854a2f67a44b0ee5a058c13595, type: 3}
      propertyPath: m_LocalPosition.z
      value: 739.7643
      objectReference: {fileID: 0}
    - target: {fileID: 2418648291018930715, guid: 994c1d854a2f67a44b0ee5a058c13595, type: 3}
      propertyPath: m_LocalRotation.w
      value: 1
      objectReference: {fileID: 0}
    - target: {fileID: 2418648291018930715, guid: 994c1d854a2f67a44b0ee5a058c13595, type: 3}
      propertyPath: m_LocalRotation.x
      value: -0
      objectReference: {fileID: 0}
    - target: {fileID: 2418648291018930715, guid: 994c1d854a2f67a44b0ee5a058c13595, type: 3}
      propertyPath: m_LocalRotation.y
      value: -0
      objectReference: {fileID: 0}
    - target: {fileID: 2418648291018930715, guid: 994c1d854a2f67a44b0ee5a058c13595, type: 3}
      propertyPath: m_LocalRotation.z
      value: -0
      objectReference: {fileID: 0}
    - target: {fileID: 2418648291018930715, guid: 994c1d854a2f67a44b0ee5a058c13595, type: 3}
      propertyPath: m_LocalEulerAnglesHint.x
      value: 0
      objectReference: {fileID: 0}
    - target: {fileID: 2418648291018930715, guid: 994c1d854a2f67a44b0ee5a058c13595, type: 3}
      propertyPath: m_LocalEulerAnglesHint.y
      value: 0
      objectReference: {fileID: 0}
    - target: {fileID: 2418648291018930715, guid: 994c1d854a2f67a44b0ee5a058c13595, type: 3}
      propertyPath: m_LocalEulerAnglesHint.z
      value: 0
      objectReference: {fileID: 0}
    - target: {fileID: 5492456899250543482, guid: 994c1d854a2f67a44b0ee5a058c13595, type: 3}
      propertyPath: m_Name
      value: sheet 1_6 (4)
      objectReference: {fileID: 0}
    m_RemovedComponents: []
  m_SourcePrefab: {fileID: 100100000, guid: 994c1d854a2f67a44b0ee5a058c13595, type: 3}
--- !u!4 &1408803092 stripped
Transform:
  m_CorrespondingSourceObject: {fileID: 2418648291018930715, guid: 994c1d854a2f67a44b0ee5a058c13595, type: 3}
  m_PrefabInstance: {fileID: 1408803091}
  m_PrefabAsset: {fileID: 0}
--- !u!1 &1461177667
GameObject:
  m_ObjectHideFlags: 0
  m_CorrespondingSourceObject: {fileID: 0}
  m_PrefabInstance: {fileID: 0}
  m_PrefabAsset: {fileID: 0}
  serializedVersion: 6
  m_Component:
  - component: {fileID: 1461177668}
  m_Layer: 0
  m_Name: PickUps
  m_TagString: Untagged
  m_Icon: {fileID: 0}
  m_NavMeshLayer: 0
  m_StaticEditorFlags: 0
  m_IsActive: 1
--- !u!4 &1461177668
Transform:
  m_ObjectHideFlags: 0
  m_CorrespondingSourceObject: {fileID: 0}
  m_PrefabInstance: {fileID: 0}
  m_PrefabAsset: {fileID: 0}
  m_GameObject: {fileID: 1461177667}
  m_LocalRotation: {x: 0, y: 0, z: 0, w: 1}
  m_LocalPosition: {x: 12.235293, y: 1.4837174, z: -739.7643}
  m_LocalScale: {x: 1, y: 1, z: 1}
  m_Children:
  - {fileID: 73492473}
  - {fileID: 441381500}
  - {fileID: 302080069}
  - {fileID: 848358265}
  - {fileID: 138765878}
  - {fileID: 1079774503}
  - {fileID: 1408803092}
  - {fileID: 1150224994}
  - {fileID: 971308038}
  - {fileID: 48447270}
  - {fileID: 1576612773}
  m_Father: {fileID: 0}
  m_RootOrder: 4
  m_LocalEulerAnglesHint: {x: 0, y: 0, z: 0}
--- !u!1001 &1576612772
PrefabInstance:
  m_ObjectHideFlags: 0
  serializedVersion: 2
  m_Modification:
    m_TransformParent: {fileID: 1461177668}
    m_Modifications:
    - target: {fileID: 2418648291018930715, guid: 994c1d854a2f67a44b0ee5a058c13595, type: 3}
      propertyPath: m_RootOrder
      value: 10
      objectReference: {fileID: 0}
    - target: {fileID: 2418648291018930715, guid: 994c1d854a2f67a44b0ee5a058c13595, type: 3}
      propertyPath: m_LocalPosition.x
      value: -14.025794
      objectReference: {fileID: 0}
    - target: {fileID: 2418648291018930715, guid: 994c1d854a2f67a44b0ee5a058c13595, type: 3}
      propertyPath: m_LocalPosition.y
      value: -1.598528
      objectReference: {fileID: 0}
    - target: {fileID: 2418648291018930715, guid: 994c1d854a2f67a44b0ee5a058c13595, type: 3}
      propertyPath: m_LocalPosition.z
      value: 739.7643
      objectReference: {fileID: 0}
    - target: {fileID: 2418648291018930715, guid: 994c1d854a2f67a44b0ee5a058c13595, type: 3}
      propertyPath: m_LocalRotation.w
      value: 1
      objectReference: {fileID: 0}
    - target: {fileID: 2418648291018930715, guid: 994c1d854a2f67a44b0ee5a058c13595, type: 3}
      propertyPath: m_LocalRotation.x
      value: -0
      objectReference: {fileID: 0}
    - target: {fileID: 2418648291018930715, guid: 994c1d854a2f67a44b0ee5a058c13595, type: 3}
      propertyPath: m_LocalRotation.y
      value: -0
      objectReference: {fileID: 0}
    - target: {fileID: 2418648291018930715, guid: 994c1d854a2f67a44b0ee5a058c13595, type: 3}
      propertyPath: m_LocalRotation.z
      value: -0
      objectReference: {fileID: 0}
    - target: {fileID: 2418648291018930715, guid: 994c1d854a2f67a44b0ee5a058c13595, type: 3}
      propertyPath: m_LocalEulerAnglesHint.x
      value: 0
      objectReference: {fileID: 0}
    - target: {fileID: 2418648291018930715, guid: 994c1d854a2f67a44b0ee5a058c13595, type: 3}
      propertyPath: m_LocalEulerAnglesHint.y
      value: 0
      objectReference: {fileID: 0}
    - target: {fileID: 2418648291018930715, guid: 994c1d854a2f67a44b0ee5a058c13595, type: 3}
      propertyPath: m_LocalEulerAnglesHint.z
      value: 0
      objectReference: {fileID: 0}
    - target: {fileID: 5492456899250543482, guid: 994c1d854a2f67a44b0ee5a058c13595, type: 3}
      propertyPath: m_Name
      value: sheet 1_6
      objectReference: {fileID: 0}
    m_RemovedComponents: []
  m_SourcePrefab: {fileID: 100100000, guid: 994c1d854a2f67a44b0ee5a058c13595, type: 3}
--- !u!4 &1576612773 stripped
Transform:
  m_CorrespondingSourceObject: {fileID: 2418648291018930715, guid: 994c1d854a2f67a44b0ee5a058c13595, type: 3}
  m_PrefabInstance: {fileID: 1576612772}
  m_PrefabAsset: {fileID: 0}
--- !u!1001 &1735388599
PrefabInstance:
  m_ObjectHideFlags: 0
  serializedVersion: 2
  m_Modification:
    m_TransformParent: {fileID: 0}
    m_Modifications:
    - target: {fileID: 1704018478813800937, guid: 0ef0d4e0d3e7cc04b90b4de5bccf8d53, type: 3}
      propertyPath: m_Name
      value: "\u0421\u0423\u041F\u0415\u0420 \u041F\u041E\u0420\u0422\u0410\u041B"
      objectReference: {fileID: 0}
    - target: {fileID: 1704018478813800943, guid: 0ef0d4e0d3e7cc04b90b4de5bccf8d53, type: 3}
      propertyPath: m_RootOrder
      value: 1
      objectReference: {fileID: 0}
    - target: {fileID: 1704018478813800943, guid: 0ef0d4e0d3e7cc04b90b4de5bccf8d53, type: 3}
      propertyPath: m_LocalPosition.x
      value: 6.9756207
      objectReference: {fileID: 0}
    - target: {fileID: 1704018478813800943, guid: 0ef0d4e0d3e7cc04b90b4de5bccf8d53, type: 3}
      propertyPath: m_LocalPosition.y
      value: 0.9164978
      objectReference: {fileID: 0}
    - target: {fileID: 1704018478813800943, guid: 0ef0d4e0d3e7cc04b90b4de5bccf8d53, type: 3}
      propertyPath: m_LocalPosition.z
      value: 0
      objectReference: {fileID: 0}
    - target: {fileID: 1704018478813800943, guid: 0ef0d4e0d3e7cc04b90b4de5bccf8d53, type: 3}
      propertyPath: m_LocalRotation.w
      value: 1
      objectReference: {fileID: 0}
    - target: {fileID: 1704018478813800943, guid: 0ef0d4e0d3e7cc04b90b4de5bccf8d53, type: 3}
      propertyPath: m_LocalRotation.x
      value: 0
      objectReference: {fileID: 0}
    - target: {fileID: 1704018478813800943, guid: 0ef0d4e0d3e7cc04b90b4de5bccf8d53, type: 3}
      propertyPath: m_LocalRotation.y
      value: 0
      objectReference: {fileID: 0}
    - target: {fileID: 1704018478813800943, guid: 0ef0d4e0d3e7cc04b90b4de5bccf8d53, type: 3}
      propertyPath: m_LocalRotation.z
      value: 0
      objectReference: {fileID: 0}
    - target: {fileID: 1704018478813800943, guid: 0ef0d4e0d3e7cc04b90b4de5bccf8d53, type: 3}
      propertyPath: m_LocalEulerAnglesHint.x
      value: 0
      objectReference: {fileID: 0}
    - target: {fileID: 1704018478813800943, guid: 0ef0d4e0d3e7cc04b90b4de5bccf8d53, type: 3}
      propertyPath: m_LocalEulerAnglesHint.y
      value: 0
      objectReference: {fileID: 0}
    - target: {fileID: 1704018478813800943, guid: 0ef0d4e0d3e7cc04b90b4de5bccf8d53, type: 3}
      propertyPath: m_LocalEulerAnglesHint.z
      value: 0
      objectReference: {fileID: 0}
    - target: {fileID: 4564700399914441878, guid: 0ef0d4e0d3e7cc04b90b4de5bccf8d53, type: 3}
      propertyPath: nextScene
      value: Scene 4
      objectReference: {fileID: 0}
    m_RemovedComponents: []
  m_SourcePrefab: {fileID: 100100000, guid: 0ef0d4e0d3e7cc04b90b4de5bccf8d53, type: 3}
--- !u!1001 &1735823366
PrefabInstance:
  m_ObjectHideFlags: 0
  serializedVersion: 2
  m_Modification:
    m_TransformParent: {fileID: 0}
    m_Modifications:
    - target: {fileID: 6529139633570684397, guid: e831a161c1a12cb46b89bc9acf0c8e1c, type: 3}
      propertyPath: m_Name
      value: Player
      objectReference: {fileID: 0}
    - target: {fileID: 6529139633570684401, guid: e831a161c1a12cb46b89bc9acf0c8e1c, type: 3}
      propertyPath: m_RootOrder
      value: 0
      objectReference: {fileID: 0}
    - target: {fileID: 6529139633570684401, guid: e831a161c1a12cb46b89bc9acf0c8e1c, type: 3}
      propertyPath: m_LocalPosition.x
      value: 0.09557915
      objectReference: {fileID: 0}
    - target: {fileID: 6529139633570684401, guid: e831a161c1a12cb46b89bc9acf0c8e1c, type: 3}
      propertyPath: m_LocalPosition.y
      value: 0.277035
      objectReference: {fileID: 0}
    - target: {fileID: 6529139633570684401, guid: e831a161c1a12cb46b89bc9acf0c8e1c, type: 3}
      propertyPath: m_LocalPosition.z
      value: 0
      objectReference: {fileID: 0}
    - target: {fileID: 6529139633570684401, guid: e831a161c1a12cb46b89bc9acf0c8e1c, type: 3}
      propertyPath: m_LocalRotation.w
      value: 1
      objectReference: {fileID: 0}
    - target: {fileID: 6529139633570684401, guid: e831a161c1a12cb46b89bc9acf0c8e1c, type: 3}
      propertyPath: m_LocalRotation.x
      value: 0
      objectReference: {fileID: 0}
    - target: {fileID: 6529139633570684401, guid: e831a161c1a12cb46b89bc9acf0c8e1c, type: 3}
      propertyPath: m_LocalRotation.y
      value: 0
      objectReference: {fileID: 0}
    - target: {fileID: 6529139633570684401, guid: e831a161c1a12cb46b89bc9acf0c8e1c, type: 3}
      propertyPath: m_LocalRotation.z
      value: 0
      objectReference: {fileID: 0}
    - target: {fileID: 6529139633570684401, guid: e831a161c1a12cb46b89bc9acf0c8e1c, type: 3}
      propertyPath: m_LocalEulerAnglesHint.x
      value: 0
      objectReference: {fileID: 0}
    - target: {fileID: 6529139633570684401, guid: e831a161c1a12cb46b89bc9acf0c8e1c, type: 3}
      propertyPath: m_LocalEulerAnglesHint.y
      value: 0
      objectReference: {fileID: 0}
    - target: {fileID: 6529139633570684401, guid: e831a161c1a12cb46b89bc9acf0c8e1c, type: 3}
      propertyPath: m_LocalEulerAnglesHint.z
      value: 0
      objectReference: {fileID: 0}
    m_RemovedComponents: []
  m_SourcePrefab: {fileID: 100100000, guid: e831a161c1a12cb46b89bc9acf0c8e1c, type: 3}
